D:\MISHA\P-CAD\METRO\TURNIKET\KOMPLEQTI\DISPLAY_KONVERTER\GERBER\N_DRIL\TDK_PCB.NDRIL:
File Finished:
Errors: 0
Warnings: 0



Output Finished:
Errors: 0
Warnings: 0
Files: 1

----------------------------------------------------------------------

28-Jan-13  13:10                                            Page    1

