# Exporting Specctra DSN file: C:\misha\posis_rideri\varianti_2\PCB\Untitled5.DSN
# 945737728 bytes currently free.
# Writing DSN file Parser section.
# Writing DSN file Resolution section.
# Writing DSN file Structure section.
# Writing DSN file Structure section Boundaries.
# Writing DSN file Structure section Layers.
# Writing DSN file Structure section Keepouts.
# Writing DSN file Structure section Grids.
# Writing DSN file Structure section Vias.
# Writing DSN file Placement section.
# Writing DSN file Library section.
# Writing DSN file Library section Images.
# Writing DSN file Library section Padstacks.
# Writing DSN file Network section.
# Writing DSN file Network section Nets.
# Writing DSN file Network section Net Classes.
# Writing DSN file Network section Class-To-Class definitions.
# Writing DSN file Network section Wiring.
# Writing DSN file Wiring section Wire definitions.
# Writing DSN file Wiring section Via definitions.
# Writing DSN file Wiring section Testpoints.
# 4294598656 bytes used.
# P-CAD to Specctra export is complete.
# Specctra DSN file is: C:\misha\posis_rideri\varianti_2\PCB\Untitled5.DSN
# 
# ===============================================================================
#                     SPECCTRA ShapeBased Automation Software                    
# Copyright 1990-2000 Cadence Design Systems, Inc.  All Rights Reserved.
# ===============================================================================
# 
# Software licensed for sale by Cadence Design Systems, Inc.
# Current time = Tue Jul 31 17:42:41 2007
# 
# SPECCTRA ShapeBased Automation Software V15.0 made 2003/06/17 at 16:13:59
# Running on: azry21, OS Version: WindowsNT 5.1.2600, Architecture: Intel Pentium
# Orphan shapes will not be removed.
# Licensing: The program will not obey any unlicensed rules
# SPECCTRA ShapeBased Automation Software will quit after -do file is executed!!
# Design Name .\Untitled5.DSN
# Batch File Name: Untitled5.DO
# Output Log File Name: C:\CCT_CDS\TOOLS\SPECCTRA\BIN\sp.log
# Did File Name: .\07311742.did
# Current time = Tue Jul 31 17:42:42 2007
# PCB .
# Master Unit set up as: MM 100000
# PCB Limits xlo=  0.2500 ylo= 80.2500 xhi=104.7500 yhi=144.7500
# Total 2 Images Consolidated.
# Via '(Default)' z=1, 2 xlo= -0.7620 ylo= -0.7620 xhi=  0.7620 yhi=  0.7620
# Via 'CCTVIA_(Default)' z=1, 2 xlo= -0.5080 ylo= -0.5080 xhi=  0.5080 yhi=  0.5080
# 
#    VIA           Top              Bottom      
# 
#    Top  ------------------  'CCTVIA_(Default)'
# Bottom  'CCTVIA_(Default)'  ------------------
# 
# Wires Processed 532, Vias Processed 37
# Layers Processed: Signal Layers 2
# Components Placed 75, Images Processed 20, Padstacks Processed 16
# Nets Processed 59, Net Terminals 251
# PCB Area= 5225.000  EIC=19  Area/EIC=275.000  SMDs=66
# Total Pin Count: 276
# Signal Connections Created 0
# 
# Design Rules --------------------------------------------
# Via Grid 0.0100 with offset 0.0000
# Layer Top Horz Signal Wire Grid 0.0100 with offset 0.0000, Width= 0.2540, Clearance= 0.3048
# Layer Bottom Vert Signal Wire Grid 0.0100 with offset 0.0000, Width= 0.2540, Clearance= 0.3048
# Cpu Time = 0:00:00  Elapsed Time = 0:00:00
# 
# Wiring Statistics ----------------- .\Untitled5.DSN
# Nets 59 Connections 156 Unroutes 0
# Signal Layers 2 Power Layers 0
# Wire Junctions 62, at vias 12 Total Vias 37
# Percent Connected  100.00
# Manhattan Length 1425.2100 Horizontal 865.9201 Vertical 559.2899
# Routed Length 1393.1640 Horizontal 859.5950 Vertical 664.2550
# Ratio Actual / Manhattan   0.9775
# Unconnected Length   0.0000 Horizontal   0.0000 Vertical   0.0000
# Total Conflicts: 0 (Cross: 0, Clear: 0, Xtalk: 0, Length: 0, Polygon Clear: 0 )
# Cpu Time = 0:00:00  Elapsed Time = 0:00:01
# Loading Do File Untitled5.DO ...
# Diagonal wire corners are preferred.
# Current time = Tue Jul 31 17:42:44 2007
# 
#    VIA           Top              Bottom      
# 
#    Top  ------------------  'CCTVIA_(Default)'
# Bottom  'CCTVIA_(Default)'  ------------------
# 
# 
# Design Rules --------------------------------------------
# Via Grid 0.0100 with offset 0.0000
# Layer Top Horz Signal Wire Grid 0.0100 with offset 0.0000, Width= 0.4000, Clearance= 0.3048
# Layer Bottom Vert Signal Wire Grid 0.0100 with offset 0.0000, Width= 0.4000, Clearance= 0.3048
# 
# Wiring Statistics ----------------- .\Untitled5.DSN
# Nets 59 Connections 156 Unroutes 0
# Signal Layers 2 Power Layers 0
# Wire Junctions 62, at vias 12 Total Vias 37
# Percent Connected  100.00
# Manhattan Length 1425.2100 Horizontal 865.9201 Vertical 559.2899
# Routed Length 1393.1640 Horizontal 859.5950 Vertical 664.2550
# Ratio Actual / Manhattan   0.9775
# Unconnected Length   0.0000 Horizontal   0.0000 Vertical   0.0000
# Attempts 0 Successes 0 Failures 0 Vias 37
# 90 degree wire corners are preferred.
# Total Conflicts: 0 (Cross: 0, Clear: 0, Xtalk: 0, Length: 0, Polygon Clear: 0 )
# Cpu Time = 0:00:01  Elapsed Time = 0:00:00
# 
# Wiring Statistics ----------------- .\Untitled5.DSN
# Nets 59 Connections 156 Unroutes 0
# Signal Layers 2 Power Layers 0
# Wire Junctions 62, at vias 12 Total Vias 37
# Percent Connected  100.00
# Manhattan Length 1425.2100 Horizontal 865.9201 Vertical 559.2899
# Routed Length 1393.1640 Horizontal 859.5950 Vertical 664.2550
# Ratio Actual / Manhattan   0.9775
# Unconnected Length   0.0000 Horizontal   0.0000 Vertical   0.0000
# Current time = Tue Jul 31 17:42:44 2007
# 
#    VIA           Top              Bottom      
# 
#    Top  ------------------  'CCTVIA_(Default)'
# Bottom  'CCTVIA_(Default)'  ------------------
# 
# 
# Design Rules --------------------------------------------
# Via Grid 0.0100 with offset 0.0000
# Layer Top Horz Signal Wire Grid 0.0100 with offset 0.0000, Width= 0.4000, Clearance= 0.3048
# Layer Bottom Vert Signal Wire Grid 0.0100 with offset 0.0000, Width= 0.4000, Clearance= 0.3048
# 
# Wiring Statistics ----------------- .\Untitled5.DSN
# Nets 59 Connections 156 Unroutes 0
# Signal Layers 2 Power Layers 0
# Wire Junctions 62, at vias 12 Total Vias 37
# Percent Connected  100.00
# Manhattan Length 1425.2100 Horizontal 865.9201 Vertical 559.2899
# Routed Length 1393.1640 Horizontal 859.5950 Vertical 664.2550
# Ratio Actual / Manhattan   0.9775
# Unconnected Length   0.0000 Horizontal   0.0000 Vertical   0.0000
# Start Route Pass 1 of 50
# Routing 10 wires.
# Total Conflicts: 0 (Cross: 0, Clear: 0, Xtalk: 0, Length: 0, Polygon Clear: 0 )
# Total Unroutes: 0
# Attempts 10 Successes 10 Failures 0 Vias 39
# Cpu Time = 0:00:00  Elapsed Time = 0:00:00
# End Pass 1 of 50
# Wiring Written to File .\best.w
# Cpu Time = 0:00:00  Elapsed Time = 0:00:01
# 
# Design Rules --------------------------------------------
# Via Grid 0.0100 with offset 0.0000
# Layer Top Horz Signal Wire Grid 0.0100 with offset 0.0000, Width= 0.2500, Clearance= 0.3048
# Layer Bottom Vert Signal Wire Grid 0.0100 with offset 0.0000, Width= 0.2500, Clearance= 0.3048
# ROUTING HISTORY ================================================================
#     Pass     |   Conflicts |    |     |     |     |    |Red|      CPU Time     |
#   Name   |No.| Cross| Clear|Fail|Unrte| Vias|XTalk|Len.| % |  Pass   |  Total  |
#----------+---+------+------+----+-----+-----+-----+----+---+---------+---------|
# Bus      |  0|     0|     0|   0|    0|   37|    0|   0|   |  0:00:01|  0:00:01|
# Route    |  1|     0|     0|   0|    0|   39|    0|   0|  0|  0:00:00|  0:00:01|
# Conflicts between polygon wires and fixed objects:   0
# Stub Violations:   0
# Net Order Violations:   0
# Diffpair Uncoupled Length Violations:   0
# Diffpair Phase Tolerance  Violations:   0
# Total layerset violations:   0
# Total layerset violations (exclude Fanout/Stagger):   0
# Overall Routing Time: 0:00:01
# 
# Wiring Statistics ----------------- .\Untitled5.DSN
# Nets 59 Connections 156 Unroutes 0
# Signal Layers 2 Power Layers 0
# Wire Junctions 62, at vias 12 Total Vias 39
# Percent Connected  100.00
# Manhattan Length 1425.2100 Horizontal 865.9201 Vertical 559.2899
# Routed Length 1398.3034 Horizontal 856.7750 Vertical 646.4750
# Ratio Actual / Manhattan   0.9811
# Unconnected Length   0.0000 Horizontal   0.0000 Vertical   0.0000
# Current time = Tue Jul 31 17:42:46 2007
# 
#    VIA           Top              Bottom      
# 
#    Top  ------------------  'CCTVIA_(Default)'
# Bottom  'CCTVIA_(Default)'  ------------------
# 
# 
# Design Rules --------------------------------------------
# Via Grid 0.0100 with offset 0.0000
# Layer Top Horz Signal Wire Grid 0.0100 with offset 0.0000, Width= 0.4000, Clearance= 0.3048
# Layer Bottom Vert Signal Wire Grid 0.0100 with offset 0.0000, Width= 0.4000, Clearance= 0.3048
# 
# Wiring Statistics ----------------- .\Untitled5.DSN
# Nets 59 Connections 156 Unroutes 0
# Signal Layers 2 Power Layers 0
# Wire Junctions 62, at vias 12 Total Vias 39
# Percent Connected  100.00
# Manhattan Length 1425.2100 Horizontal 865.9201 Vertical 559.2899
# Routed Length 1398.3034 Horizontal 856.7750 Vertical 646.4750
# Ratio Actual / Manhattan   0.9811
# Unconnected Length   0.0000 Horizontal   0.0000 Vertical   0.0000
# Start Clean Pass 1 of 4
# Routing 241 wires.
# Total Conflicts: 0 (Cross: 0, Clear: 0, Xtalk: 0, Length: 0, Polygon Clear: 0 )
# Total Unroutes: 0
# Attempts 214 Successes 214 Failures 0 Vias 38
# Cpu Time = 0:00:01  Elapsed Time = 0:00:01
# End Pass 1 of 4
# Wiring Written to File .\best.w
# Start Clean Pass 2 of 4
# Routing 267 wires.
# Total Conflicts: 0 (Cross: 0, Clear: 0, Xtalk: 0, Length: 0, Polygon Clear: 0 )
# Total Unroutes: 0
# Attempts 227 Successes 227 Failures 0 Vias 38
# Cpu Time = 0:00:01  Elapsed Time = 0:00:01
# End Pass 2 of 4
# Wiring Written to File .\best.w
# Start Clean Pass 3 of 4
# Routing 266 wires.
# Total Conflicts: 0 (Cross: 0, Clear: 0, Xtalk: 0, Length: 0, Polygon Clear: 0 )
# Total Unroutes: 0
# Attempts 224 Successes 224 Failures 0 Vias 38
# Cpu Time = 0:00:00  Elapsed Time = 0:00:01
# End Pass 3 of 4
# Wiring Written to File .\best.w
# Start Clean Pass 4 of 4
# Routing 270 wires.
# Total Conflicts: 0 (Cross: 0, Clear: 0, Xtalk: 0, Length: 0, Polygon Clear: 0 )
# Total Unroutes: 0
# Attempts 225 Successes 225 Failures 0 Vias 40
# Cpu Time = 0:00:01  Elapsed Time = 0:00:01
# End Pass 4 of 4
# Wiring Written to File .\best.w
# Cpu Time = 0:00:03  Elapsed Time = 0:00:04
# 
# Design Rules --------------------------------------------
# Via Grid 0.0100 with offset 0.0000
# Layer Top Horz Signal Wire Grid 0.0100 with offset 0.0000, Width= 0.2500, Clearance= 0.3048
# Layer Bottom Vert Signal Wire Grid 0.0100 with offset 0.0000, Width= 0.2500, Clearance= 0.3048
# ROUTING HISTORY ================================================================
#     Pass     |   Conflicts |    |     |     |     |    |Red|      CPU Time     |
#   Name   |No.| Cross| Clear|Fail|Unrte| Vias|XTalk|Len.| % |  Pass   |  Total  |
#----------+---+------+------+----+-----+-----+-----+----+---+---------+---------|
# Bus      |  0|     0|     0|   0|    0|   37|    0|   0|   |  0:00:01|  0:00:01|
# Route    |  1|     0|     0|   0|    0|   39|    0|   0|  0|  0:00:00|  0:00:01|
# Clean    |  2|     0|     0|   0|    0|   38|    0|   0|   |  0:00:01|  0:00:02|
# Clean    |  3|     0|     0|   0|    0|   38|    0|   0|   |  0:00:01|  0:00:03|
# Clean    |  4|     0|     0|   0|    0|   38|    0|   0|   |  0:00:00|  0:00:03|
# Clean    |  5|     0|     0|   0|    0|   40|    0|   0|   |  0:00:01|  0:00:04|
# Conflicts between polygon wires and fixed objects:   0
# Stub Violations:   0
# Net Order Violations:   0
# Diffpair Uncoupled Length Violations:   0
# Diffpair Phase Tolerance  Violations:   0
# Total layerset violations:   0
# Total layerset violations (exclude Fanout/Stagger):   0
# Overall Routing Time: 0:00:04
# 
# Wiring Statistics ----------------- .\Untitled5.DSN
# Nets 59 Connections 156 Unroutes 0
# Signal Layers 2 Power Layers 0
# Wire Junctions 74, at vias 12 Total Vias 40
# Percent Connected  100.00
# Manhattan Length 1425.2100 Horizontal 864.8008 Vertical 560.4092
# Routed Length 1510.4800 Horizontal 846.3150 Vertical 664.1650
# Ratio Actual / Manhattan   1.0598
# Unconnected Length   0.0000 Horizontal   0.0000 Vertical   0.0000
# Current time = Tue Jul 31 17:42:50 2007
# 
#    VIA           Top              Bottom      
# 
#    Top  ------------------  'CCTVIA_(Default)'
# Bottom  'CCTVIA_(Default)'  ------------------
# 
# 
# Design Rules --------------------------------------------
# Via Grid 0.0100 with offset 0.0000
# Layer Top Horz Signal Wire Grid 0.0100 with offset 0.0000, Width= 0.4000, Clearance= 0.3048
# Layer Bottom Vert Signal Wire Grid 0.0100 with offset 0.0000, Width= 0.4000, Clearance= 0.3048
# 
# Wiring Statistics ----------------- .\Untitled5.DSN
# Nets 59 Connections 156 Unroutes 0
# Signal Layers 2 Power Layers 0
# Wire Junctions 74, at vias 12 Total Vias 40
# Percent Connected  100.00
# Manhattan Length 1425.2100 Horizontal 864.8008 Vertical 560.4092
# Routed Length 1510.4800 Horizontal 846.3150 Vertical 664.1650
# Ratio Actual / Manhattan   1.0598
# Unconnected Length   0.0000 Horizontal   0.0000 Vertical   0.0000
# Start Route Pass 1 of 50
# Routing 0 wires.
# Total Conflicts: 0 (Cross: 0, Clear: 0, Xtalk: 0, Length: 0, Polygon Clear: 0 )
# Total Unroutes: 0
# Attempts 0 Successes 0 Failures 0 Vias 40
# Cpu Time = 0:00:00  Elapsed Time = 0:00:01
# End Pass 1 of 50
# Wiring Written to File .\best.w
# Cpu Time = 0:00:00  Elapsed Time = 0:00:01
# 
# Design Rules --------------------------------------------
# Via Grid 0.0100 with offset 0.0000
# Layer Top Horz Signal Wire Grid 0.0100 with offset 0.0000, Width= 0.2500, Clearance= 0.3048
# Layer Bottom Vert Signal Wire Grid 0.0100 with offset 0.0000, Width= 0.2500, Clearance= 0.3048
# ROUTING HISTORY ================================================================
#     Pass     |   Conflicts |    |     |     |     |    |Red|      CPU Time     |
#   Name   |No.| Cross| Clear|Fail|Unrte| Vias|XTalk|Len.| % |  Pass   |  Total  |
#----------+---+------+------+----+-----+-----+-----+----+---+---------+---------|
# Bus      |  0|     0|     0|   0|    0|   37|    0|   0|   |  0:00:01|  0:00:01|
# Route    |  1|     0|     0|   0|    0|   39|    0|   0|  0|  0:00:00|  0:00:01|
# Clean    |  2|     0|     0|   0|    0|   38|    0|   0|   |  0:00:01|  0:00:02|
# Clean    |  3|     0|     0|   0|    0|   38|    0|   0|   |  0:00:01|  0:00:03|
# Clean    |  4|     0|     0|   0|    0|   38|    0|   0|   |  0:00:00|  0:00:03|
# Clean    |  5|     0|     0|   0|    0|   40|    0|   0|   |  0:00:01|  0:00:04|
# Route    |  6|     0|     0|   0|    0|   40|    0|   0|  0|  0:00:00|  0:00:04|
# Conflicts between polygon wires and fixed objects:   0
# Stub Violations:   0
# Net Order Violations:   0
# Diffpair Uncoupled Length Violations:   0
# Diffpair Phase Tolerance  Violations:   0
# Total layerset violations:   0
# Total layerset violations (exclude Fanout/Stagger):   0
# Overall Routing Time: 0:00:04
# 
# Wiring Statistics ----------------- .\Untitled5.DSN
# Nets 59 Connections 156 Unroutes 0
# Signal Layers 2 Power Layers 0
# Wire Junctions 74, at vias 12 Total Vias 40
# Percent Connected  100.00
# Manhattan Length 1425.2100 Horizontal 864.8008 Vertical 560.4092
# Routed Length 1510.4800 Horizontal 846.3150 Vertical 664.1650
# Ratio Actual / Manhattan   1.0598
# Unconnected Length   0.0000 Horizontal   0.0000 Vertical   0.0000
# Current time = Tue Jul 31 17:42:51 2007
# 
#    VIA           Top              Bottom      
# 
#    Top  ------------------  'CCTVIA_(Default)'
# Bottom  'CCTVIA_(Default)'  ------------------
# 
# 
# Design Rules --------------------------------------------
# Via Grid 0.0100 with offset 0.0000
# Layer Top Horz Signal Wire Grid 0.0100 with offset 0.0000, Width= 0.4000, Clearance= 0.3048
# Layer Bottom Vert Signal Wire Grid 0.0100 with offset 0.0000, Width= 0.4000, Clearance= 0.3048
# 
# Wiring Statistics ----------------- .\Untitled5.DSN
# Nets 59 Connections 156 Unroutes 0
# Signal Layers 2 Power Layers 0
# Wire Junctions 74, at vias 12 Total Vias 40
# Percent Connected  100.00
# Manhattan Length 1425.2100 Horizontal 864.8008 Vertical 560.4092
# Routed Length 1510.4800 Horizontal 846.3150 Vertical 664.1650
# Ratio Actual / Manhattan   1.0598
# Unconnected Length   0.0000 Horizontal   0.0000 Vertical   0.0000
# Start Clean Pass 1 of 4
# Routing 254 wires.
# Total Conflicts: 0 (Cross: 0, Clear: 0, Xtalk: 0, Length: 0, Polygon Clear: 0 )
# Total Unroutes: 0
# Attempts 230 Successes 230 Failures 0 Vias 38
# Cpu Time = 0:00:00  Elapsed Time = 0:00:01
# End Pass 1 of 4
# Wiring Written to File .\best.w
# Start Clean Pass 2 of 4
# Routing 260 wires.
# Total Conflicts: 0 (Cross: 0, Clear: 0, Xtalk: 0, Length: 0, Polygon Clear: 0 )
# Total Unroutes: 0
# Attempts 230 Successes 230 Failures 0 Vias 38
# Cpu Time = 0:00:01  Elapsed Time = 0:00:01
# End Pass 2 of 4
# Wiring Written to File .\best.w
# Start Clean Pass 3 of 4
# Routing 263 wires.
# Total Conflicts: 0 (Cross: 0, Clear: 0, Xtalk: 0, Length: 0, Polygon Clear: 0 )
# Total Unroutes: 0
# Attempts 223 Successes 223 Failures 0 Vias 38
# Cpu Time = 0:00:01  Elapsed Time = 0:00:01
# End Pass 3 of 4
# Wiring Written to File .\best.w
# Start Clean Pass 4 of 4
# Routing 266 wires.
# Total Conflicts: 0 (Cross: 0, Clear: 0, Xtalk: 0, Length: 0, Polygon Clear: 0 )
# Total Unroutes: 0
# Attempts 230 Successes 230 Failures 0 Vias 38
# Cpu Time = 0:00:00  Elapsed Time = 0:00:01
# End Pass 4 of 4
# Wiring Written to File .\best.w
# Cpu Time = 0:00:03  Elapsed Time = 0:00:04
# 
# Design Rules --------------------------------------------
# Via Grid 0.0100 with offset 0.0000
# Layer Top Horz Signal Wire Grid 0.0100 with offset 0.0000, Width= 0.2500, Clearance= 0.3048
# Layer Bottom Vert Signal Wire Grid 0.0100 with offset 0.0000, Width= 0.2500, Clearance= 0.3048
# ROUTING HISTORY ================================================================
#     Pass     |   Conflicts |    |     |     |     |    |Red|      CPU Time     |
#   Name   |No.| Cross| Clear|Fail|Unrte| Vias|XTalk|Len.| % |  Pass   |  Total  |
#----------+---+------+------+----+-----+-----+-----+----+---+---------+---------|
# Bus      |  0|     0|     0|   0|    0|   37|    0|   0|   |  0:00:01|  0:00:01|
# Route    |  1|     0|     0|   0|    0|   39|    0|   0|  0|  0:00:00|  0:00:01|
# Clean    |  2|     0|     0|   0|    0|   38|    0|   0|   |  0:00:01|  0:00:02|
# Clean    |  3|     0|     0|   0|    0|   38|    0|   0|   |  0:00:01|  0:00:03|
# Clean    |  4|     0|     0|   0|    0|   38|    0|   0|   |  0:00:00|  0:00:03|
# Clean    |  5|     0|     0|   0|    0|   40|    0|   0|   |  0:00:01|  0:00:04|
# Route    |  6|     0|     0|   0|    0|   40|    0|   0|  0|  0:00:00|  0:00:04|
# Clean    |  7|     0|     0|   0|    0|   38|    0|   0|   |  0:00:00|  0:00:04|
# Clean    |  8|     0|     0|   0|    0|   38|    0|   0|   |  0:00:01|  0:00:05|
# Clean    |  9|     0|     0|   0|    0|   38|    0|   0|   |  0:00:01|  0:00:06|
# Clean    | 10|     0|     0|   0|    0|   38|    0|   0|   |  0:00:00|  0:00:06|
# Conflicts between polygon wires and fixed objects:   0
# Stub Violations:   0
# Net Order Violations:   0
# Diffpair Uncoupled Length Violations:   0
# Diffpair Phase Tolerance  Violations:   0
# Total layerset violations:   0
# Total layerset violations (exclude Fanout/Stagger):   0
# Overall Routing Time: 0:00:06
# 
# Wiring Statistics ----------------- .\Untitled5.DSN
# Nets 59 Connections 156 Unroutes 0
# Signal Layers 2 Power Layers 0
# Wire Junctions 75, at vias 11 Total Vias 38
# Percent Connected  100.00
# Manhattan Length 1425.2100 Horizontal 865.6194 Vertical 559.5906
# Routed Length 1501.3200 Horizontal 844.5550 Vertical 656.7650
# Ratio Actual / Manhattan   1.0534
# Unconnected Length   0.0000 Horizontal   0.0000 Vertical   0.0000
# Current time = Tue Jul 31 17:42:55 2007
# 
#    VIA           Top              Bottom      
# 
#    Top  ------------------  'CCTVIA_(Default)'
# Bottom  'CCTVIA_(Default)'  ------------------
# 
# 
# Design Rules --------------------------------------------
# Via Grid 0.0100 with offset 0.0000
# Layer Top Horz Signal Wire Grid 0.0100 with offset 0.0000, Width= 0.4000, Clearance= 0.3048
# Layer Bottom Vert Signal Wire Grid 0.0100 with offset 0.0000, Width= 0.4000, Clearance= 0.3048
# 
# Wiring Statistics ----------------- .\Untitled5.DSN
# Nets 59 Connections 156 Unroutes 0
# Signal Layers 2 Power Layers 0
# Wire Junctions 75, at vias 11 Total Vias 38
# Percent Connected  100.00
# Manhattan Length 1425.2100 Horizontal 865.6194 Vertical 559.5906
# Routed Length 1501.3200 Horizontal 844.5550 Vertical 656.7650
# Ratio Actual / Manhattan   1.0534
# Unconnected Length   0.0000 Horizontal   0.0000 Vertical   0.0000
# Start Filter Pass 1 of 5
# Routing 0 wires.
# Total Conflicts: 0 (Cross: 0, Clear: 0, Xtalk: 0, Length: 0, Polygon Clear: 0 )
# Total Unroutes: 0
# Attempts 0 Successes 0 Failures 0 Vias 38
# Cpu Time = 0:00:00  Elapsed Time = 0:00:00
# End Pass 1 of 5
# Wiring Written to File .\best.w
# Cpu Time = 0:00:01  Elapsed Time = 0:00:01
# 
# Design Rules --------------------------------------------
# Via Grid 0.0100 with offset 0.0000
# Layer Top Horz Signal Wire Grid 0.0100 with offset 0.0000, Width= 0.2500, Clearance= 0.3048
# Layer Bottom Vert Signal Wire Grid 0.0100 with offset 0.0000, Width= 0.2500, Clearance= 0.3048
# ROUTING HISTORY ================================================================
#     Pass     |   Conflicts |    |     |     |     |    |Red|      CPU Time     |
#   Name   |No.| Cross| Clear|Fail|Unrte| Vias|XTalk|Len.| % |  Pass   |  Total  |
#----------+---+------+------+----+-----+-----+-----+----+---+---------+---------|
# Bus      |  0|     0|     0|   0|    0|   37|    0|   0|   |  0:00:01|  0:00:01|
# Route    |  1|     0|     0|   0|    0|   39|    0|   0|  0|  0:00:00|  0:00:01|
# Clean    |  2|     0|     0|   0|    0|   38|    0|   0|   |  0:00:01|  0:00:02|
# Clean    |  3|     0|     0|   0|    0|   38|    0|   0|   |  0:00:01|  0:00:03|
# Clean    |  4|     0|     0|   0|    0|   38|    0|   0|   |  0:00:00|  0:00:03|
# Clean    |  5|     0|     0|   0|    0|   40|    0|   0|   |  0:00:01|  0:00:04|
# Route    |  6|     0|     0|   0|    0|   40|    0|   0|  0|  0:00:00|  0:00:04|
# Clean    |  7|     0|     0|   0|    0|   38|    0|   0|   |  0:00:00|  0:00:04|
# Clean    |  8|     0|     0|   0|    0|   38|    0|   0|   |  0:00:01|  0:00:05|
# Clean    |  9|     0|     0|   0|    0|   38|    0|   0|   |  0:00:01|  0:00:06|
# Clean    | 10|     0|     0|   0|    0|   38|    0|   0|   |  0:00:00|  0:00:06|
# Filter   | 11|     0|     0|   0|    0|   38|    0|   0|  0|  0:00:00|  0:00:06|
# Conflicts between polygon wires and fixed objects:   0
# Stub Violations:   0
# Net Order Violations:   0
# Diffpair Uncoupled Length Violations:   0
# Diffpair Phase Tolerance  Violations:   0
# Total layerset violations:   0
# Total layerset violations (exclude Fanout/Stagger):   0
# Overall Routing Time: 0:00:06
# 
# Wiring Statistics ----------------- .\Untitled5.DSN
# Nets 59 Connections 156 Unroutes 0
# Signal Layers 2 Power Layers 0
# Wire Junctions 75, at vias 11 Total Vias 38
# Percent Connected  100.00
# Manhattan Length 1425.2100 Horizontal 865.6194 Vertical 559.5906
# Routed Length 1501.3200 Horizontal 844.5550 Vertical 656.7650
# Ratio Actual / Manhattan   1.0534
# Unconnected Length   0.0000 Horizontal   0.0000 Vertical   0.0000
# Current time = Tue Jul 31 17:42:56 2007
# 
#    VIA           Top              Bottom      
# 
#    Top  ------------------  'CCTVIA_(Default)'
# Bottom  'CCTVIA_(Default)'  ------------------
# 
# 
# Design Rules --------------------------------------------
# Via Grid 0.0100 with offset 0.0000
# Layer Top Horz Signal Wire Grid 0.0100 with offset 0.0000, Width= 0.4000, Clearance= 0.3048
# Layer Bottom Vert Signal Wire Grid 0.0100 with offset 0.0000, Width= 0.4000, Clearance= 0.3048
# 
# Wiring Statistics ----------------- .\Untitled5.DSN
# Nets 59 Connections 156 Unroutes 0
# Signal Layers 2 Power Layers 0
# Wire Junctions 75, at vias 11 Total Vias 38
# Percent Connected  100.00
# Manhattan Length 1425.2100 Horizontal 865.6194 Vertical 559.5906
# Routed Length 1501.3200 Horizontal 844.5550 Vertical 656.7650
# Ratio Actual / Manhattan   1.0534
# Unconnected Length   0.0000 Horizontal   0.0000 Vertical   0.0000
# Start Route Pass 1 of 100
# Routing 0 wires.
# Total Conflicts: 0 (Cross: 0, Clear: 0, Xtalk: 0, Length: 0, Polygon Clear: 0 )
# Total Unroutes: 0
# Attempts 0 Successes 0 Failures 0 Vias 38
# Cpu Time = 0:00:00  Elapsed Time = 0:00:00
# End Pass 1 of 100
# Wiring Written to File .\best.w
# Cpu Time = 0:00:00  Elapsed Time = 0:00:01
# 
# Design Rules --------------------------------------------
# Via Grid 0.0100 with offset 0.0000
# Layer Top Horz Signal Wire Grid 0.0100 with offset 0.0000, Width= 0.2500, Clearance= 0.3048
# Layer Bottom Vert Signal Wire Grid 0.0100 with offset 0.0000, Width= 0.2500, Clearance= 0.3048
# ROUTING HISTORY ================================================================
#     Pass     |   Conflicts |    |     |     |     |    |Red|      CPU Time     |
#   Name   |No.| Cross| Clear|Fail|Unrte| Vias|XTalk|Len.| % |  Pass   |  Total  |
#----------+---+------+------+----+-----+-----+-----+----+---+---------+---------|
# Bus      |  0|     0|     0|   0|    0|   37|    0|   0|   |  0:00:01|  0:00:01|
# Route    |  1|     0|     0|   0|    0|   39|    0|   0|  0|  0:00:00|  0:00:01|
# Clean    |  2|     0|     0|   0|    0|   38|    0|   0|   |  0:00:01|  0:00:02|
# Clean    |  3|     0|     0|   0|    0|   38|    0|   0|   |  0:00:01|  0:00:03|
# Clean    |  4|     0|     0|   0|    0|   38|    0|   0|   |  0:00:00|  0:00:03|
# Clean    |  5|     0|     0|   0|    0|   40|    0|   0|   |  0:00:01|  0:00:04|
# Route    |  6|     0|     0|   0|    0|   40|    0|   0|  0|  0:00:00|  0:00:04|
# Clean    |  7|     0|     0|   0|    0|   38|    0|   0|   |  0:00:00|  0:00:04|
# Clean    |  8|     0|     0|   0|    0|   38|    0|   0|   |  0:00:01|  0:00:05|
# Clean    |  9|     0|     0|   0|    0|   38|    0|   0|   |  0:00:01|  0:00:06|
# Clean    | 10|     0|     0|   0|    0|   38|    0|   0|   |  0:00:00|  0:00:06|
# Filter   | 11|     0|     0|   0|    0|   38|    0|   0|  0|  0:00:00|  0:00:06|
# Route    | 12|     0|     0|   0|    0|   38|    0|   0|  0|  0:00:00|  0:00:06|
# Conflicts between polygon wires and fixed objects:   0
# Stub Violations:   0
# Net Order Violations:   0
# Diffpair Uncoupled Length Violations:   0
# Diffpair Phase Tolerance  Violations:   0
# Total layerset violations:   0
# Total layerset violations (exclude Fanout/Stagger):   0
# Overall Routing Time: 0:00:06
# 
# Wiring Statistics ----------------- .\Untitled5.DSN
# Nets 59 Connections 156 Unroutes 0
# Signal Layers 2 Power Layers 0
# Wire Junctions 75, at vias 11 Total Vias 38
# Percent Connected  100.00
# Manhattan Length 1425.2100 Horizontal 865.6194 Vertical 559.5906
# Routed Length 1501.3200 Horizontal 844.5550 Vertical 656.7650
# Ratio Actual / Manhattan   1.0534
# Unconnected Length   0.0000 Horizontal   0.0000 Vertical   0.0000
# Current time = Tue Jul 31 17:42:57 2007
# 
#    VIA           Top              Bottom      
# 
#    Top  ------------------  'CCTVIA_(Default)'
# Bottom  'CCTVIA_(Default)'  ------------------
# 
# 
# Design Rules --------------------------------------------
# Via Grid 0.0100 with offset 0.0000
# Layer Top Horz Signal Wire Grid 0.0100 with offset 0.0000, Width= 0.4000, Clearance= 0.3048
# Layer Bottom Vert Signal Wire Grid 0.0100 with offset 0.0000, Width= 0.4000, Clearance= 0.3048
# 
# Wiring Statistics ----------------- .\Untitled5.DSN
# Nets 59 Connections 156 Unroutes 0
# Signal Layers 2 Power Layers 0
# Wire Junctions 75, at vias 11 Total Vias 38
# Percent Connected  100.00
# Manhattan Length 1425.2100 Horizontal 865.6194 Vertical 559.5906
# Routed Length 1501.3200 Horizontal 844.5550 Vertical 656.7650
# Ratio Actual / Manhattan   1.0534
# Unconnected Length   0.0000 Horizontal   0.0000 Vertical   0.0000
# Start Clean Pass 1 of 2
# Routing 254 wires.
# Total Conflicts: 0 (Cross: 0, Clear: 0, Xtalk: 0, Length: 0, Polygon Clear: 0 )
# Total Unroutes: 0
# Attempts 230 Successes 230 Failures 0 Vias 38
# Cpu Time = 0:00:01  Elapsed Time = 0:00:00
# End Pass 1 of 2
# Wiring Written to File .\best.w
# Start Clean Pass 2 of 2
# Routing 261 wires.
# Total Conflicts: 0 (Cross: 0, Clear: 0, Xtalk: 0, Length: 0, Polygon Clear: 0 )
# Total Unroutes: 0
# Attempts 231 Successes 231 Failures 0 Vias 38
# Cpu Time = 0:00:01  Elapsed Time = 0:00:00
# End Pass 2 of 2
# Wiring Written to File .\best.w
# Cpu Time = 0:00:02  Elapsed Time = 0:00:02
# 
# Design Rules --------------------------------------------
# Via Grid 0.0100 with offset 0.0000
# Layer Top Horz Signal Wire Grid 0.0100 with offset 0.0000, Width= 0.2500, Clearance= 0.3048
# Layer Bottom Vert Signal Wire Grid 0.0100 with offset 0.0000, Width= 0.2500, Clearance= 0.3048
# ROUTING HISTORY ================================================================
#     Pass     |   Conflicts |    |     |     |     |    |Red|      CPU Time     |
#   Name   |No.| Cross| Clear|Fail|Unrte| Vias|XTalk|Len.| % |  Pass   |  Total  |
#----------+---+------+------+----+-----+-----+-----+----+---+---------+---------|
# Bus      |  0|     0|     0|   0|    0|   37|    0|   0|   |  0:00:01|  0:00:01|
# Route    |  1|     0|     0|   0|    0|   39|    0|   0|  0|  0:00:00|  0:00:01|
# Clean    |  2|     0|     0|   0|    0|   38|    0|   0|   |  0:00:01|  0:00:02|
# Clean    |  3|     0|     0|   0|    0|   38|    0|   0|   |  0:00:01|  0:00:03|
# Clean    |  4|     0|     0|   0|    0|   38|    0|   0|   |  0:00:00|  0:00:03|
# Clean    |  5|     0|     0|   0|    0|   40|    0|   0|   |  0:00:01|  0:00:04|
# Route    |  6|     0|     0|   0|    0|   40|    0|   0|  0|  0:00:00|  0:00:04|
# Clean    |  7|     0|     0|   0|    0|   38|    0|   0|   |  0:00:00|  0:00:04|
# Clean    |  8|     0|     0|   0|    0|   38|    0|   0|   |  0:00:01|  0:00:05|
# Clean    |  9|     0|     0|   0|    0|   38|    0|   0|   |  0:00:01|  0:00:06|
# Clean    | 10|     0|     0|   0|    0|   38|    0|   0|   |  0:00:00|  0:00:06|
# Filter   | 11|     0|     0|   0|    0|   38|    0|   0|  0|  0:00:00|  0:00:06|
# Route    | 12|     0|     0|   0|    0|   38|    0|   0|  0|  0:00:00|  0:00:06|
# Clean    | 13|     0|     0|   0|    0|   38|    0|   0|   |  0:00:01|  0:00:07|
# Clean    | 14|     0|     0|   0|    0|   38|    0|   0|   |  0:00:01|  0:00:08|
# Conflicts between polygon wires and fixed objects:   0
# Stub Violations:   0
# Net Order Violations:   0
# Diffpair Uncoupled Length Violations:   0
# Diffpair Phase Tolerance  Violations:   0
# Total layerset violations:   0
# Total layerset violations (exclude Fanout/Stagger):   0
# Overall Routing Time: 0:00:08
# 
# Wiring Statistics ----------------- .\Untitled5.DSN
# Nets 59 Connections 156 Unroutes 0
# Signal Layers 2 Power Layers 0
# Wire Junctions 75, at vias 11 Total Vias 38
# Percent Connected  100.00
# Manhattan Length 1425.2100 Horizontal 865.6194 Vertical 559.5906
# Routed Length 1500.6900 Horizontal 843.4350 Vertical 657.2550
# Ratio Actual / Manhattan   1.0530
# Unconnected Length   0.0000 Horizontal   0.0000 Vertical   0.0000
# Current time = Tue Jul 31 17:43:00 2007
# Total Conflicts: 0 (Cross: 0, Clear: 0, Xtalk: 0, Length: 0, Polygon Clear: 0 )
# Cpu Time = 0:00:00  Elapsed Time = 0:00:00
# 
# Wiring Statistics ----------------- .\Untitled5.DSN
# Nets 59 Connections 156 Unroutes 0
# Signal Layers 2 Power Layers 0
# Wire Junctions 75, at vias 11 Total Vias 38
# Percent Connected  100.00
# Manhattan Length 1425.2100 Horizontal 865.6194 Vertical 559.5906
# Routed Length 1500.6900 Horizontal 843.4350 Vertical 657.2550
# Ratio Actual / Manhattan   1.0530
# Unconnected Length   0.0000 Horizontal   0.0000 Vertical   0.0000
# Wiring Written to File .\Untitled5.w
# Current time = Tue Jul 31 17:43:00 2007
# 
#    VIA           Top              Bottom      
# 
#    Top  ------------------  'CCTVIA_(Default)'
# Bottom  'CCTVIA_(Default)'  ------------------
# 
# 
# Design Rules --------------------------------------------
# Via Grid 0.0100 with offset 0.0000
# Layer Top Horz Signal Wire Grid 0.0100 with offset 0.0000, Width= 0.4000, Clearance= 0.3048
# Layer Bottom Vert Signal Wire Grid 0.0100 with offset 0.0000, Width= 0.4000, Clearance= 0.3048
# 
# Wiring Statistics ----------------- .\Untitled5.DSN
# Nets 59 Connections 156 Unroutes 0
# Signal Layers 2 Power Layers 0
# Wire Junctions 75, at vias 11 Total Vias 38
# Percent Connected  100.00
# Manhattan Length 1425.2100 Horizontal 865.6194 Vertical 559.5906
# Routed Length 1500.6900 Horizontal 843.4350 Vertical 657.2550
# Ratio Actual / Manhattan   1.0530
# Unconnected Length   0.0000 Horizontal   0.0000 Vertical   0.0000
# Total Conflicts: 0 (Cross: 0, Clear: 0, Xtalk: 0, Length: 0, Polygon Clear: 0 )
# Cpu Time = 0:00:00  Elapsed Time = 0:00:00
# 
# Wiring Statistics ----------------- .\Untitled5.DSN
# Nets 59 Connections 156 Unroutes 0
# Signal Layers 2 Power Layers 0
# Wire Junctions 75, at vias 11 Total Vias 38
# Percent Connected  100.00
# Manhattan Length 1425.2100 Horizontal 865.6194 Vertical 559.5906
# Routed Length 1501.5900 Horizontal 843.9350 Vertical 657.6550
# Ratio Actual / Manhattan   1.0536
# Unconnected Length   0.0000 Horizontal   0.0000 Vertical   0.0000
# Diagonal wire corners are preferred.
# Current time = Tue Jul 31 17:43:01 2007
# Convert orthogonal pin exit to diagonal...
# Convert wire segment to diagonal...
# Convert orthogonal corner to diagonal...
# Corners changed 169
# 90 degree wire corners are preferred.
# Total Conflicts: 0 (Cross: 0, Clear: 0, Xtalk: 0, Length: 0, Polygon Clear: 0 )
# Cpu Time = 0:00:01  Elapsed Time = 0:00:01
# 
# Wiring Statistics ----------------- .\Untitled5.DSN
# Nets 59 Connections 156 Unroutes 0
# Signal Layers 2 Power Layers 0
# Wire Junctions 69, at vias 11 Total Vias 38
# Percent Connected  100.00
# Manhattan Length 1425.2100 Horizontal 865.6194 Vertical 559.5906
# Routed Length 1385.7861 Horizontal 851.2050 Vertical 661.6850
# Ratio Actual / Manhattan   0.9723
# Unconnected Length   0.0000 Horizontal   0.0000 Vertical   0.0000
# Wiring Written to File .\Untitled5.m
# Session Files Saved as .\Untitled5.ses
# Report Written to File .\Untitled5.sts
#SPECCTRA ShapeBased Automation Software V15.0 made 2003/06/17 at 16:13:59
#Host 
#ROUTING STATUS <<< .\Untitled5.DSN >>>
Start  Time: Report Time: Tue Jul 31 17:43:02 2007

Nets         =       59   Connections         =      156
Current Wire =        0   Reroute wires       =      231
Completion   =  100.00%   Unconnections       =        0
| ROUTING HISTORY ================================================================
|     Pass     |   Conflicts |    |     |     |     |    |Red|      CPU Time     |
|   Name   |No.| Cross| Clear|Fail|Unrte| Vias|XTalk|Len.| % |  Pass   |  Total  |
|----------+---+------+------+----+-----+-----+-----+----+---+---------+---------|
| Bus      |  0|     0|     0|   0|    0|   37|    0|   0|   |  0:00:01|  0:00:01|
| Route    |  1|     0|     0|   0|    0|   39|    0|   0|  0|  0:00:00|  0:00:01|
| Clean    |  2|     0|     0|   0|    0|   38|    0|   0|   |  0:00:01|  0:00:02|
| Clean    |  3|     0|     0|   0|    0|   38|    0|   0|   |  0:00:01|  0:00:03|
| Clean    |  4|     0|     0|   0|    0|   38|    0|   0|   |  0:00:00|  0:00:03|
| Clean    |  5|     0|     0|   0|    0|   40|    0|   0|   |  0:00:01|  0:00:04|
| Route    |  6|     0|     0|   0|    0|   40|    0|   0|  0|  0:00:00|  0:00:04|
| Clean    |  7|     0|     0|   0|    0|   38|    0|   0|   |  0:00:00|  0:00:04|
| Clean    |  8|     0|     0|   0|    0|   38|    0|   0|   |  0:00:01|  0:00:05|
| Clean    |  9|     0|     0|   0|    0|   38|    0|   0|   |  0:00:01|  0:00:06|
| Clean    | 10|     0|     0|   0|    0|   38|    0|   0|   |  0:00:00|  0:00:06|
| Filter   | 11|     0|     0|   0|    0|   38|    0|   0|  0|  0:00:00|  0:00:06|
| Route    | 12|     0|     0|   0|    0|   38|    0|   0|  0|  0:00:00|  0:00:06|
| Clean    | 13|     0|     0|   0|    0|   38|    0|   0|   |  0:00:01|  0:00:07|
| Clean    | 14|     0|     0|   0|    0|   38|    0|   0|   |  0:00:01|  0:00:08|
| Delete   | 14|     0|     0|   0|    0|   38|    0|   0|   |  0:00:00|  0:00:08|
| Spread   | 14|     0|     0|   0|    0|   38|    0|   0|   |  0:00:00|  0:00:08|
| Miter    | 14|     0|     0|   0|    0|   38|    0|   0|   |  0:00:01|  0:00:09|
| Conflicts between polygon wires and fixed objects:   0
#
# Importing SES file C:\misha\posis_rideri\varianti_2\PCB\Untitled5.ses
# into current P-CAD PCB design.
# Parsing session file.
# Parsing routes section.
# Parsing resolution section.
# Parsing parser section.
# Parsing network output section.
# Parsing net section for net +5V.
# Parsing net section for net GND.
# Parsing net section for net NET00000.
# Parsing net section for net NET00001.
# Parsing net section for net NET00003.
# Parsing net section for net NET00004.
# Parsing net section for net NET00005.
# Parsing net section for net NET00006.
# Parsing net section for net NET00007.
# Parsing net section for net NET00008.
# Parsing net section for net NET00009.
# Parsing net section for net NET00010.
# Parsing net section for net NET00011.
# Parsing net section for net NET00013.
# Parsing net section for net NET00014.
# Parsing net section for net NET00015.
# Parsing net section for net NET00016.
# Parsing net section for net NET00017.
# Parsing net section for net NET00018.
# Parsing net section for net NET00019.
# Parsing net section for net NET00055.
# Parsing net section for net NET00056.
# Parsing net section for net NET00057.
# Parsing net section for net NET00058.
# Parsing net section for net NET00102.
# Parsing net section for net NET00103.
# Parsing net section for net NET00104.
# Parsing net section for net NET00105.
# Parsing net section for net NET00106.
# Parsing net section for net NET00108.
# Parsing net section for net NET00110.
# Parsing net section for net NET00112.
# Parsing net section for net NET00113.
# Parsing net section for net NET00114.
# Parsing net section for net NET00120.
# Parsing net section for net NET00121.
# Parsing net section for net NET00122.
# Parsing net section for net NET00123.
# Parsing net section for net NET00125.
# Parsing net section for net NET00126.
# Parsing net section for net NET00127.
# Parsing net section for net NET00128.
# Parsing net section for net NET00129.
# Parsing net section for net NET00130.
# Parsing net section for net NET00133.
# Parsing net section for net NET00134.
# Parsing net section for net NET00135.
# Parsing net section for net NET00136.
# Parsing net section for net NET00137.
# Parsing net section for net NET00138.
# Parsing net section for net NET00139.
# Parsing net section for net NET00140.
# Parsing net section for net NET00142.
# Parsing net section for net NET00143.
# Parsing net section for net NET00144.
# Parsing net section for net NET00145.
# Parsing net section for net NET00147.
# Parsing net section for net NET00148.
# Skipping net section for net ProtectedFreePad.
# Parsing test points section.
# Updating current design component placement and routes.
# Removing existing routes, test points, and their associated dimensions from current design.
# No component placement locations modified. No placement updates required.
# Adding routes to net +5V.
# Adding routes to net GND.
# Adding routes to net NET00000.
# Adding routes to net NET00001.
# Adding routes to net NET00003.
# Adding routes to net NET00004.
# Adding routes to net NET00005.
# Adding routes to net NET00006.
# Adding routes to net NET00007.
# Adding routes to net NET00008.
# Adding routes to net NET00009.
# Adding routes to net NET00010.
# Adding routes to net NET00011.
# Adding routes to net NET00013.
# Adding routes to net NET00014.
# Adding routes to net NET00015.
# Adding routes to net NET00016.
# Adding routes to net NET00017.
# Adding routes to net NET00018.
# Adding routes to net NET00019.
# Adding routes to net NET00055.
# Adding routes to net NET00056.
# Adding routes to net NET00057.
# Adding routes to net NET00058.
# Adding routes to net NET00102.
# Adding routes to net NET00103.
# Adding routes to net NET00104.
# Adding routes to net NET00105.
# Adding routes to net NET00106.
# Adding routes to net NET00108.
# Adding routes to net NET00110.
# Adding routes to net NET00112.
# Adding routes to net NET00113.
# Adding routes to net NET00114.
# Adding routes to net NET00120.
# Adding routes to net NET00121.
# Adding routes to net NET00122.
# Adding routes to net NET00123.
# Adding routes to net NET00125.
# Adding routes to net NET00126.
# Adding routes to net NET00127.
# Adding routes to net NET00128.
# Adding routes to net NET00129.
# Adding routes to net NET00130.
# Adding routes to net NET00133.
# Adding routes to net NET00134.
# Adding routes to net NET00135.
# Adding routes to net NET00136.
# Adding routes to net NET00137.
# Adding routes to net NET00138.
# Adding routes to net NET00139.
# Adding routes to net NET00140.
# Adding routes to net NET00142.
# Adding routes to net NET00143.
# Adding routes to net NET00144.
# Adding routes to net NET00145.
# Adding routes to net NET00147.
# Adding routes to net NET00148.
# SES file successfully imported into current P-CAD PCB design.
