D:\MISHA\P-CAD\MARSHUTKEBI\MAIN_DROEBITI\GERBER\NDRIL\PCB.NDRIL:
File Finished:
Errors: 0
Warnings: 0



Output Finished:
Errors: 0
Warnings: 0
Files: 1

----------------------------------------------------------------------

22-Jun-11  03:17                                            Page    1

