D:\MISHA\P-CAD\SHINAGAN_SAQMETA_SAMINISTRO\TURNIKETEBIS_MARTVA\GERBER\DRIL\PCB.NDRIL:
File Finished:
Errors: 0
Warnings: 0



Output Finished:
Errors: 0
Warnings: 0
Files: 1

----------------------------------------------------------------------

25-Jan-11  05:46                                            Page    1

