D:\MISHA\P-CAD\LIFT\MAIN_BOARD\BUTTON_SVITCH\GERBER\NDRIL\PCB.NDRIL:
File Finished:
Errors: 0
Warnings: 0



Output Finished:
Errors: 0
Warnings: 0
Files: 1

----------------------------------------------------------------------

01-May-12  11:12                                            Page    1

