D:\MISHA\P-CAD\MARSHUTKEBI\KOMPLEQTI_MARSHUTKIS\TABLO_BOARD\GERBER\NDRIL\PCB.NDRIL:
File Finished:
Errors: 0
Warnings: 0



Output Finished:
Errors: 0
Warnings: 0
Files: 1

----------------------------------------------------------------------

21-Oct-11  18:03                                            Page    1

