P-CAD N/C Drill Output Log

======================================================================

D:\MISHA\P-CAD\SHINAGAN_SAQMETA_SAMINISTRO\TURNIKETEBIS_MARTVA\ETHERNET\GERBER_ETH\DRIL\LIFT_ETHERNET_ECSTENTION.NDRIL:
File Finished:
Errors: 0
Warnings: 0



Output Finished:
Errors: 0
Warnings: 0
Files: 1

----------------------------------------------------------------------

25-Jan-11  05:47                                            Page    1

