P-CAD Online DRC Error Log                                       PCB.pcb

======================================================================

OnlineDRC.ERR.txt:

NETLIST VIOLATIONS:


0 warning(s) detected.
0 error(s) detected.

CLEARANCE VIOLATIONS:


0 warning(s) detected.
0 error(s) detected.

WIDTH VIOLATIONS:


0 warning(s) detected.
0 error(s) detected.







































----------------------------------------------------------------------

26-Dec-10  23:46                                            Page    1

