P-CAD Gerber Output Error Log

======================================================================

D:\misha\P-CAD\BUS_STOP_TABLOs\P-CAD\GERBER\PCB.GTOP:
File Finished:
Errors: 0
Warnings: 0

D:\misha\P-CAD\BUS_STOP_TABLOs\P-CAD\GERBER\PCB.GBOTTOM:
File Finished:
Errors: 0
Warnings: 0

D:\misha\P-CAD\BUS_STOP_TABLOs\P-CAD\GERBER\PCB.GTOPMASK:
File Finished:
Errors: 0
Warnings: 0

D:\misha\P-CAD\BUS_STOP_TABLOs\P-CAD\GERBER\PCB.GBOTMASK:
File Finished:
Errors: 0
Warnings: 0

D:\misha\P-CAD\BUS_STOP_TABLOs\P-CAD\GERBER\PCB.GTOPSILK:
File Finished:
Errors: 0
Warnings: 0

D:\misha\P-CAD\BUS_STOP_TABLOs\P-CAD\GERBER\PCB.GBRD:
File Finished:
Errors: 0
Warnings: 0

D:\misha\P-CAD\BUS_STOP_TABLOs\P-CAD\GERBER\PCB.GDRIL:
File Finished:
Errors: 0
Warnings: 0

Output Finished:
Errors: 0
Warnings: 0
Files: 7
