D:\MISHA\P-CAD\RKINIGZA\MAIN_BRD\GERBER\NDRIL\PCB.NDRIL:
File Finished:
Errors: 0
Warnings: 0



Output Finished:
Errors: 0
Warnings: 0
Files: 1

----------------------------------------------------------------------

04-Apr-12  14:12                                            Page    1

