D:\misha\P-CAD\marshutkebi\tablo_board\GERBER\PCB.GTOP:
File Finished:
Errors: 0
Warnings: 0

D:\misha\P-CAD\marshutkebi\tablo_board\GERBER\PCB.GBOTTOM:
File Finished:
Errors: 0
Warnings: 0

D:\misha\P-CAD\marshutkebi\tablo_board\GERBER\PCB.GTOPMASK:
File Finished:
Errors: 0
Warnings: 0

D:\misha\P-CAD\marshutkebi\tablo_board\GERBER\PCB.GBOTMASK:
File Finished:
Errors: 0
Warnings: 0

D:\misha\P-CAD\marshutkebi\tablo_board\GERBER\PCB.GTOPSILK:
File Finished:
Errors: 0
Warnings: 0

D:\misha\P-CAD\marshutkebi\tablo_board\GERBER\PCB.GBRD:
File Finished:
Errors: 0
Warnings: 0

D:\misha\P-CAD\marshutkebi\tablo_board\GERBER\PCB.GDRIL:
File Finished:
Errors: 0
Warnings: 0

Output Finished:
Errors: 0
Warnings: 0
Files: 7
