P-CAD N/C Drill Output Log

======================================================================

D:\MISHA\P-CAD\GREEN_PCB_ORDERS\ORDER_B_10\PCB1\GERBER\NDRIL\PCB.NDRIL:
File Finished:
Errors: 0
Warnings: 0



Output Finished:
Errors: 0
Warnings: 0
Files: 1

----------------------------------------------------------------------

03-Sep-13  10:20                                            Page    1

