P-CAD Online DRC Error Log                                       PCB.pcb

======================================================================

OnlineDRC.ERR.txt:

NETLIST VIOLATIONS:


0 warning(s) detected.
0 error(s) detected.

CLEARANCE VIOLATIONS:


0 warning(s) detected.
0 error(s) detected.

WIDTH VIOLATIONS:


0 warning(s) detected.
0 error(s) detected.







































----------------------------------------------------------------------

12-Dec-11  13:42                                            Page    1

