D:\misha\P-CAD\marshutkebi\rfid_module\FILE\GERBER\PCB.GTOP:
File Finished:
Errors: 0
Warnings: 0

D:\misha\P-CAD\marshutkebi\rfid_module\FILE\GERBER\PCB.GBOTTOM:
File Finished:
Errors: 0
Warnings: 0

D:\misha\P-CAD\marshutkebi\rfid_module\FILE\GERBER\PCB.GTOPMASK:
File Finished:
Errors: 0
Warnings: 0

D:\misha\P-CAD\marshutkebi\rfid_module\FILE\GERBER\PCB.GBOTMASK:
File Finished:
Errors: 0
Warnings: 0

D:\misha\P-CAD\marshutkebi\rfid_module\FILE\GERBER\PCB.GTOPSILK:
File Finished:
Errors: 0
Warnings: 0

D:\misha\P-CAD\marshutkebi\rfid_module\FILE\GERBER\PCB.GBOTSILK:
File Finished:
Errors: 0
Warnings: 0

D:\misha\P-CAD\marshutkebi\rfid_module\FILE\GERBER\PCB.GBRD:
File Finished:
Errors: 0
Warnings: 0

D:\misha\P-CAD\marshutkebi\rfid_module\FILE\GERBER\PCB.GDRIL:
File Finished:
Errors: 0
Warnings: 0

Output Finished:
Errors: 0
Warnings: 0
Files: 8
