P-CAD Net List Load Errors

======================================================================

Netlist filename: F:\misha\P-CAD\STM32_RFID\netlist\net.net
Error: line 3191
   * Component C_08_05 not loaded.  Component is not in library.
Error: line 3197
   * Component C_08_05 not loaded.  Component is not in library.
Error: line 3203
   * Component C_08_05 not loaded.  Component is not in library.
Error: line 3209
   * Component C_08_05 not loaded.  Component is not in library.
Error: line 3215
   * Component C_08_05 not loaded.  Component is not in library.
Error: line 3221
   * Component R_08_05 not loaded.  Component is not in library.
Error: line 3227
   * Component SMD_K4 not loaded.  Component is not in library.
Error: line 3233
   * Component C_08_05 not loaded.  Component is not in library.
Error: line 3239
   * Component C_08_05 not loaded.  Component is not in library.
Error: line 3245
   * Component R_08_05 not loaded.  Component is not in library.
Error: line 3251
   * Component R_08_05 not loaded.  Component is not in library.
Error: line 3257
   * Component C_08_05 not loaded.  Component is not in library.
Error: line 3263
   * Component C_08_05 not loaded.  Component is not in library.
Error: line 3269
   * Component C_08_05 not loaded.  Component is not in library.
Error: line 3275
   * Component C_08_05 not loaded.  Component is not in library.
Error: line 3281
   * Component DR_1 not loaded.  Component is not in library.
Error: line 3287
   * Component C_08_05 not loaded.  Component is not in library.
Error: line 3293
   * Component C_08_05 not loaded.  Component is not in library.
Error: line 3299
   * Component C_08_05 not loaded.  Component is not in library.
Error: line 3305
   * Component R_08_05 not loaded.  Component is not in library.
Error: line 3310
   * Component R_08_05 not loaded.  Component is not in library.
Error: line 3316
   * Component 32_KHZ not loaded.  Component is not in library.
Error: line 3327
   * Component C_08_05 not loaded.  Component is not in library.
Error: line 3333
   * Component C_08_05 not loaded.  Component is not in library.
Error: line 3339
   * Component C_08_05 not loaded.  Component is not in library.
Error: line 3345
   * Component C_08_05 not loaded.  Component is not in library.
Error: line 3351
   * Component DR_1 not loaded.  Component is not in library.
Warning: line 3356
   * Component G1 of type GILAK_1 is not in libraries.  Component of type GIL_1 loaded.
Error: line 3362

----------------------------------------------------------------------

17-Feb-09  22:33                                            Page    1

P-CAD Net List Load Errors

======================================================================

   * Component R_08_05 not loaded.  Component is not in library.
Error: line 3368
   * Component R_08_05 not loaded.  Component is not in library.
Error: line 3374
   * Component C_08_05 not loaded.  Component is not in library.
Error: line 3380
   * Component DR_1 not loaded.  Component is not in library.
Error: line 3386
   * Component DR_1 not loaded.  Component is not in library.
Error: line 3392
   * Component R_08_05 not loaded.  Component is not in library.
Error: line 3398
   * Component AI57_L6Z not loaded.  Component is not in library.
Error: line 3404
   * Component R_08_05 not loaded.  Component is not in library.
Error: line 3410
   * Component C_08_05 not loaded.  Component is not in library.
Error: line 3416
   * Component BAT_1 not loaded.  Component is not in library.
Error: line 3422
   * Component C_08_05 not loaded.  Component is not in library.
Error: line 3427
   * Component R_08_05 not loaded.  Component is not in library.
Error: line 3433
   * Component C_08_05 not loaded.  Component is not in library.
Error: line 3439
   * Component C_08_05 not loaded.  Component is not in library.
Error: line 3444
   * Component MFRC531 not loaded.  Component is not in library.
Error: line 3449
   * Component STM32 not loaded.  Component is not in library.
Error: line 3455
   * Component R_08_05 not loaded.  Component is not in library.
Error: line 3461
   * Component R_08_05 not loaded.  Component is not in library.
Warning: line 3466
   * Component Q2 of type CSX750F_14.7456MHZ is not in libraries.  Component of type CSX750F loaded.
Error: line 3472
   * Component C_08_05 not loaded.  Component is not in library.
Error: line 3478
   * Component C_08_05 not loaded.  Component is not in library.
Error: line 3484
   * Component C_08_05 not loaded.  Component is not in library.
Error: line 3490
   * Component C_08_05 not loaded.  Component is not in library.
Error: line 3496
   * Component R_08_05 not loaded.  Component is not in library.
Error: line 3507
   * Component SMD_>47UF not loaded.  Component is not in library.
Error: line 3512
   * Component 08_05_LED not loaded.  Component is not in library.
Error: line 3518
   * Component C_12_06 not loaded.  Component is not in library.
Error: line 3523
   * Component MCP1700_3.3V_250MA not loaded.  Component is not in library.
Error: line 3529
   * Component SMD_>47UF not loaded.  Component is not in library.

----------------------------------------------------------------------

17-Feb-09  22:33                                            Page    2

P-CAD Net List Load Errors

======================================================================

Error: line 3535
   * Component C_08_05 not loaded.  Component is not in library.
Error: line 3541
   * Component C_12_06 not loaded.  Component is not in library.
Error: line 3547
   * Component 220_UH_PM105 not loaded.  Component is not in library.
Error: line 3553
   * Component R_08_05 not loaded.  Component is not in library.
Warning: line 3558
   * Component U1 of type M34063 loaded with a pattern mismatch between the library (SOIC_8_3) and netlist file (M34063)
Error: line 3564
   * Component R_08_05 not loaded.  Component is not in library.
Error: line 3569
   * Component R_08_05 not loaded.  Component is not in library.
Error: line 3575
   * Component R_08_05 not loaded.  Component is not in library.
Error: line 3581
   * Component R_08_05 not loaded.  Component is not in library.
Error: line 3587
   * Component R_08_05 not loaded.  Component is not in library.
Error: line 3592
   * Component HIF3F_10P_PAT not loaded.  Component is not in library.
Error: line 3597
   * Component R_08_05 not loaded.  Component is not in library.
Error: line 3603
   * Component R_15_MM not loaded.  Component is not in library.
Error: line 3608
   * Component VD_1A not loaded.  Component is not in library.
Error: line 3613
   * Component SVD_1 not loaded.  Component is not in library.
Error: line 3619
   * Component SMD_>47UF not loaded.  Component is not in library.
Error: line 3625
   * Component C_12_06 not loaded.  Component is not in library.
Error: line 3631
   * Component R_08_05 not loaded.  Component is not in library.
Error: line 3637
   * Component R_08_05 not loaded.  Component is not in library.
Error: line 3643
   * Component R_08_05 not loaded.  Component is not in library.
Error: line 3649
   * Component CP2102 not loaded.  Component is not in library.
Error: line 3654
   * Component C_12_06 not loaded.  Component is not in library.
Error: line 3660
   * Component C_08_05 not loaded.  Component is not in library.
Error: line 3672
   * Component C_08_05 not loaded.  Component is not in library.
Error: line 3678
   * Component C_08_05 not loaded.  Component is not in library.
Error: line 3683
   * Component USB not loaded.  Component is not in library.
Error: line 3689
   * Component C_08_05 not loaded.  Component is not in library.
Error: line 3699
   * Component ADM232AA not loaded.  Component is not in library.
Error: line 3705

----------------------------------------------------------------------

17-Feb-09  22:33                                            Page    3

P-CAD Net List Load Errors

======================================================================

   * Component R_08_05 not loaded.  Component is not in library.
Error: line 3711
   * Component R_08_05 not loaded.  Component is not in library.
Error: line 3717
   * Component R_08_05 not loaded.  Component is not in library.
Error: line 3723
   * Component R_08_05 not loaded.  Component is not in library.
Error: line 3728
   * Component SVD_1 not loaded.  Component is not in library.
Error: Net NET00102: Refdes C22 of C22-1 not found.
Error: Net NET00102: Refdes Q1 of Q1-1 not found.
Error: Net NET00102: Refdes U2 of U2-1 not found.
Error: Net NET00103: Refdes Q1 of Q1-2 not found.
Error: Net NET00103: Refdes C28 of C28-1 not found.
Error: Net NET00103: Refdes U2 of U2-32 not found.
Error: Net NET00104: Refdes DR1 of DR1-2 not found.
Error: Net NET00104: Refdes U2 of U2-5 not found.
Error: Net GND: Refdes C16 of C16-1 not found.
Error: Net GND: Refdes C15 of C15-2 not found.
Error: Net GND: Refdes C22 of C22-2 not found.
Error: Net GND: Refdes C4 of C4-2 not found.
Error: Net GND: Refdes R2 of R2-1 not found.
Error: Net GND: Refdes R1 of R1-1 not found.
Error: Net GND: Refdes C33 of C33-1 not found.
Error: Net GND: Refdes C32 of C32-1 not found.
Error: Net GND: Refdes R19 of R19-2 not found.
Error: Net GND: Refdes C39 of C39-2 not found.
Error: Net GND: Refdes C37 of C37-2 not found.
Error: Net GND: Refdes C35 of C35-2 not found.
Error: Net GND: Refdes C1 of C1-2 not found.
Error: Net GND: Refdes C2 of C2-2 not found.
Error: Net GND: Refdes C3 of C3-2 not found.
Error: Net GND: Refdes R3 of R3-1 not found.
Error: Net GND: Refdes R4 of R4-1 not found.
Error: Net GND: Refdes R6 of R6-2 not found.
Error: Net GND: Refdes C19 of C19-2 not found.
Error: Net GND: Refdes C14 of C14-1 not found.
Error: Net GND: Refdes C13 of C13-1 not found.
Error: Net GND: Refdes C18 of C18-1 not found.
Error: Net GND: Refdes C10 of C10-2 not found.
Error: Net GND: Refdes C17 of C17-2 not found.
Error: Net GND: Refdes USB1 of USB1-4 not found.
Error: Net GND: Refdes USB1 of USB1-5 not found.
Error: Net GND: Refdes USB1 of USB1-6 not found.
Error: Net GND: Refdes C30 of C30-1 not found.
Error: Net GND: Refdes C34 of C34-2 not found.
Error: Net GND: Refdes R17 of R17-2 not found.
Error: Net GND: Refdes C36 of C36-2 not found.
Error: Net GND: Refdes C38 of C38-2 not found.
Error: Net GND: Refdes C40 of C40-2 not found.
Error: Net GND: Refdes C5 of C5-2 not found.
Error: Net GND: Refdes C20 of C20-2 not found.
Error: Net GND: Refdes C31 of C31-2 not found.
Error: Net GND: Refdes BAT1 of BAT1-2 not found.
Error: Net GND: Refdes VD1 of VD1-1 not found.
Error: Net GND: Refdes C24 of C24-1 not found.
Error: Net GND: Refdes C25 of C25-1 not found.

----------------------------------------------------------------------

17-Feb-09  22:33                                            Page    4

P-CAD Net List Load Errors

======================================================================

Error: Net GND: Refdes C23 of C23-1 not found.
Error: Net GND: Refdes C9 of C9-1 not found.
Error: Net GND: Refdes C6 of C6-2 not found.
Error: Net GND: Refdes C28 of C28-2 not found.
Error: Net GND: Refdes JETAG1 of JETAG1-2 not found.
Error: Net GND: Refdes JETAG1 of JETAG1-10 not found.
Error: Net GND: Refdes SVD2 of SVD2-2 not found.
Error: Net GND: Refdes SVD3 of SVD3-2 not found.
Error: Net GND: Refdes U3 of U3-15 not found.
Error: Net GND: Refdes U2 of U2-8 not found.
Error: Net GND: Refdes U2 of U2-23 not found.
Error: Net GND: Refdes U2 of U2-28 not found.
Error: Net GND: Refdes U2 of U2-9 not found.
Error: Net GND: Refdes U2 of U2-12 not found.
Error: Net GND: Refdes U4 of U4-3 not found.
Error: Net GND: Refdes U5 of U5-23 not found.
Error: Net GND: Refdes U5 of U5-47 not found.
Error: Net GND: Refdes U5 of U5-8 not found.
Error: Net GND: Refdes U5 of U5-35 not found.
Error: Net GND: Refdes KREN1 of KREN1-2 not found.
Error: Net NET00105: Refdes DR2 of DR2-2 not found.
Error: Net NET00105: Refdes U2 of U2-7 not found.
Error: Net NET00106: Refdes C20 of C20-1 not found.
Error: Net NET00106: Refdes DR3 of DR3-1 not found.
Error: Net NET00106: Refdes U2 of U2-6 not found.
Error: Net NET00054: Refdes U5 of U5-30 not found.
Error: Net NET00001: Refdes C21 of C21-1 not found.
Error: Net NET00001: Refdes R8 of R8-2 not found.
Error: Net NET00108: Refdes DR4 of DR4-2 not found.
Error: Net NET00108: Refdes C23 of C23-2 not found.
Error: Net NET00108: Refdes U2 of U2-11 not found.
Error: Net NET00108: Refdes U2 of U2-10 not found.
Error: Net NET00108: Refdes U2 of U2-25 not found.
Error: Net NET00110: Refdes C15 of C15-1 not found.
Error: Net NET00110: Refdes DR1 of DR1-1 not found.
Error: Net NET00110: Refdes C21 of C21-2 not found.
Error: Net NET00110: Refdes C11 of C11-1 not found.
Error: Net NET00110: Refdes C17 of C17-1 not found.
Error: Net NET00110: Refdes C7 of C7-1 not found.
Error: Net NET00113: Refdes C16 of C16-2 not found.
Error: Net NET00113: Refdes DR2 of DR2-1 not found.
Error: Net NET00113: Refdes C12 of C12-2 not found.
Error: Net NET00113: Refdes C18 of C18-2 not found.
Error: Net NET00113: Refdes C8 of C8-2 not found.
Error: Net NET00112: Refdes R2 of R2-2 not found.
Error: Net NET00112: Refdes R1 of R1-2 not found.
Error: Net NET00112: Refdes C10 of C10-1 not found.
Error: Net NET00112: Refdes C11 of C11-2 not found.
Error: Net NET00112: Refdes C6 of C6-1 not found.
Error: Net NET00112: Refdes C7 of C7-2 not found.
Error: Net NET00114: Refdes R3 of R3-2 not found.
Error: Net NET00114: Refdes R4 of R4-2 not found.
Error: Net NET00114: Refdes C12 of C12-1 not found.
Error: Net NET00114: Refdes C13 of C13-2 not found.
Error: Net NET00114: Refdes C8 of C8-1 not found.
Error: Net NET00114: Refdes C9 of C9-2 not found.
Error: Net +3.3: Refdes R15 of R15-2 not found.

----------------------------------------------------------------------

17-Feb-09  22:33                                            Page    5

P-CAD Net List Load Errors

======================================================================

Error: Net +3.3: Refdes C39 of C39-1 not found.
Error: Net +3.3: Refdes C37 of C37-1 not found.
Error: Net +3.3: Refdes C35 of C35-1 not found.
Error: Net +3.3: Refdes R16 of R16-1 not found.
Error: Net +3.3: Refdes C36 of C36-1 not found.
Error: Net +3.3: Refdes C38 of C38-1 not found.
Error: Net +3.3: Refdes C40 of C40-1 not found.
Error: Net +3.3: Refdes R25 of R25-2 not found.
Error: Net +3.3: Refdes R21 of R21-2 not found.
Error: Net +3.3: Refdes JETAG1 of JETAG1-4 not found.
Error: Net +3.3: Refdes R22 of R22-2 not found.
Error: Net +3.3: Refdes R23 of R23-2 not found.
Error: Net +3.3: Refdes U5 of U5-48 not found.
Error: Net +3.3: Refdes U5 of U5-24 not found.
Error: Net +3.3: Refdes U5 of U5-36 not found.
Error: Net +3.3: Refdes U5 of U5-9 not found.
Error: Net +3.3: Refdes KREN1 of KREN1-3 not found.
Error: Net NET00038: Refdes R15 of R15-1 not found.
Error: Net NET00120: Refdes C14 of C14-2 not found.
Error: Net NET00120: Refdes R9 of R9-1 not found.
Error: Net NET00120: Refdes U2 of U2-30 not found.
Error: Net NET00121: Refdes R9 of R9-2 not found.
Error: Net NET00121: Refdes R8 of R8-1 not found.
Error: Net NET00121: Refdes U2 of U2-29 not found.
Error: Net NET00039: Refdes R14 of R14-2 not found.
Error: Net NET00125: Refdes U2 of U2-13 not found.
Error: Net NET00125: Refdes U5 of U5-16 not found.
Error: Net NET00126: Refdes U2 of U2-24 not found.
Error: Net NET00126: Refdes U5 of U5-15 not found.
Error: Net NET00127: Refdes U2 of U2-22 not found.
Error: Net NET00127: Refdes U5 of U5-17 not found.
Error: Net +5: Refdes C19 of C19-1 not found.
Error: Net +5: Refdes DR4 of DR4-1 not found.
Error: Net +5: Refdes DR3 of DR3-2 not found.
Error: Net +5: Refdes R13 of R13-2 not found.
Error: Net +5: Refdes R27 of R27-2 not found.
Error: Net +5: Refdes KREN1 of KREN1-1 not found.
Error: Net NET00129: Refdes U2 of U2-21 not found.
Error: Net NET00129: Refdes U5 of U5-12 not found.
Error: Net NET00130: Refdes U2 of U2-31 not found.
Error: Net NET00130: Refdes U5 of U5-11 not found.
Error: Net NET00100: Refdes R27 of R27-1 not found.
Error: Net NET00100: Refdes SVD3 of SVD3-1 not found.
Error: Net NET00055: Refdes U5 of U5-31 not found.
Error: Net NET00021: Refdes R7 of R7-2 not found.
Error: Net +12: Refdes C4 of C4-1 not found.
Error: Net +12: Refdes C3 of C3-1 not found.
Error: Net +12: Refdes R7 of R7-1 not found.
Error: Net NET00023: Refdes R6 of R6-1 not found.
Error: Net NET00023: Refdes R5 of R5-2 not found.
Error: Net NET00024: Refdes C5 of C5-1 not found.
Error: Net NET00005: Refdes R14 of R14-1 not found.
Error: Net NET00005: Refdes U5 of U5-5 not found.
Error: Net NET00042: Refdes R25 of R25-1 not found.
Error: Net NET00042: Refdes JETAG1 of JETAG1-7 not found.
Error: Net NET00042: Refdes U5 of U5-34 not found.
Error: Net NET00000: Refdes C31 of C31-1 not found.

----------------------------------------------------------------------

17-Feb-09  22:33                                            Page    6

P-CAD Net List Load Errors

======================================================================

Error: Net NET00000: Refdes R13 of R13-1 not found.
Error: Net NET00000: Refdes U2 of U2-26 not found.
Error: Net NET00009: Refdes C33 of C33-2 not found.
Error: Net NET00009: Refdes Q3 of Q3-1 not found.
Error: Net NET00009: Refdes U5 of U5-4 not found.
Error: Net NET00010: Refdes C32 of C32-2 not found.
Error: Net NET00010: Refdes Q3 of Q3-2 not found.
Error: Net NET00010: Refdes U5 of U5-3 not found.
Error: Net NET00012: Refdes BAT1 of BAT1-1 not found.
Error: Net NET00012: Refdes U5 of U5-1 not found.
Error: Net NET00013: Refdes R19 of R19-1 not found.
Error: Net NET00013: Refdes C34 of C34-1 not found.
Error: Net NET00013: Refdes R16 of R16-2 not found.
Error: Net NET00013: Refdes JETAG1 of JETAG1-8 not found.
Error: Net NET00013: Refdes U5 of U5-7 not found.
Error: Net NET00046: Refdes JETAG1 of JETAG1-5 not found.
Error: Net NET00046: Refdes U5 of U5-37 not found.
Error: Net NET00047: Refdes R21 of R21-1 not found.
Error: Net NET00047: Refdes JETAG1 of JETAG1-9 not found.
Error: Net NET00047: Refdes U5 of U5-38 not found.
Error: Net NET00049: Refdes JETAG1 of JETAG1-3 not found.
Error: Net NET00049: Refdes R22 of R22-1 not found.
Error: Net NET00049: Refdes U5 of U5-39 not found.
Error: Net NET00050: Refdes JETAG1 of JETAG1-1 not found.
Error: Net NET00050: Refdes R23 of R23-1 not found.
Error: Net NET00050: Refdes U5 of U5-40 not found.
Error: Net NET00034: Refdes L1 of L1-2 not found.
Error: Net NET00034: Refdes VD1 of VD1-2 not found.
Error: Net NET00014: Refdes R10 of R10-2 not found.
Error: Net NET00014: Refdes U4 of U4-5 not found.
Error: Net +5V: Refdes C1 of C1-1 not found.
Error: Net +5V: Refdes C2 of C2-1 not found.
Error: Net +5V: Refdes L1 of L1-1 not found.
Error: Net +5V: Refdes C29 of C29-2 not found.
Error: Net +5V: Refdes R5 of R5-1 not found.
Error: Net +5V: Refdes U3 of U3-16 not found.
Error: Net NET00002: Refdes R10 of R10-1 not found.
Error: Net NET00002: Refdes USB1 of USB1-2 not found.
Error: Net NET00003: Refdes USB1 of USB1-3 not found.
Error: Net NET00003: Refdes R11 of R11-1 not found.
Error: Net NET00015: Refdes R11 of R11-2 not found.
Error: Net NET00015: Refdes U4 of U4-4 not found.
Error: Net NET00139: Refdes C27 of C27-1 not found.
Error: Net NET00139: Refdes U3 of U3-3 not found.
Error: Net NET00030: Refdes R12 of R12-1 not found.
Error: Net NET00030: Refdes U4 of U4-9 not found.
Error: Net NET00140: Refdes C27 of C27-2 not found.
Error: Net NET00140: Refdes U3 of U3-1 not found.
Error: Net NET00008: Refdes USB1 of USB1-1 not found.
Error: Net NET00008: Refdes C25 of C25-2 not found.
Error: Net NET00008: Refdes U4 of U4-8 not found.
Error: Net NET00008: Refdes U4 of U4-7 not found.
Error: Net NET00011: Refdes C30 of C30-2 not found.
Error: Net NET00011: Refdes R12 of R12-2 not found.
Error: Net NET00011: Refdes U4 of U4-6 not found.
Error: Net NET00145: Refdes C24 of C24-2 not found.
Error: Net NET00145: Refdes U3 of U3-6 not found.

----------------------------------------------------------------------

17-Feb-09  22:33                                            Page    7

P-CAD Net List Load Errors

======================================================================

Error: Net NET00142: Refdes C29 of C29-1 not found.
Error: Net NET00142: Refdes U3 of U3-2 not found.
Error: Net NET00143: Refdes C26 of C26-2 not found.
Error: Net NET00143: Refdes U3 of U3-4 not found.
Error: Net NET00144: Refdes C26 of C26-1 not found.
Error: Net NET00144: Refdes U3 of U3-5 not found.
Error: Net NET00147: Refdes U3 of U3-14 not found.
Error: Net NET00148: Refdes U3 of U3-13 not found.
Error: Net NET00018: Refdes U3 of U3-12 not found.
Error: Net NET00019: Refdes U3 of U3-11 not found.
Error: Net NET00020: Refdes U4 of U4-25 not found.
Error: Net NET00111: Refdes R18 of R18-2 not found.
Error: Net NET00111: Refdes U5 of U5-44 not found.
Error: Net NET00004: Refdes R18 of R18-1 not found.
Error: Net NET00007: Refdes R17 of R17-1 not found.
Error: Net NET00007: Refdes U5 of U5-2 not found.
Error: Net NET00022: Refdes U4 of U4-26 not found.
Error: Net GND1: Refdes SVD1 of SVD1-2 not found.
Warning: Net GND1 has less than two nodes.
Error: Net NET00025: Refdes R20 of R20-1 not found.
Error: Net NET00025: Refdes SVD1 of SVD1-1 not found.
Error: Net NET00026: Refdes R24 of R24-1 not found.
Error: Net NET00026: Refdes SVD1 of SVD1-3 not found.
Error: Net NET00027: Refdes R26 of R26-1 not found.
Error: Net NET00027: Refdes SVD2 of SVD2-1 not found.
Error: Net NET00028: Refdes R28 of R28-1 not found.
Error: Net NET00028: Refdes SVD2 of SVD2-3 not found.
Error: Net NET00029: Refdes R20 of R20-2 not found.
Error: Net NET00029: Refdes U5 of U5-18 not found.
Error: Net NET00031: Refdes R24 of R24-2 not found.
Error: Net NET00031: Refdes U5 of U5-19 not found.
Error: Net NET00032: Refdes R26 of R26-2 not found.
Error: Net NET00032: Refdes U5 of U5-20 not found.
Error: Net NET00033: Refdes R28 of R28-2 not found.
Error: Net NET00033: Refdes U5 of U5-21 not found.

Net List Errors:   340
Net List Warnings: 4



















----------------------------------------------------------------------

17-Feb-09  22:33                                            Page    8

