D:\misha\P-CAD\shinagan_saqmeta_saministro\turniketebis_martva\etherne
t\GERBER_ETH\LIFT_ETHERNET_ECSTENTION.GTOP:
File Finished:
Errors: 0
Warnings: 0

D:\misha\P-CAD\shinagan_saqmeta_saministro\turniketebis_martva\etherne
t\GERBER_ETH\LIFT_ETHERNET_ECSTENTION.GBOTTOM:
File Finished:
Errors: 0
Warnings: 0

D:\misha\P-CAD\shinagan_saqmeta_saministro\turniketebis_martva\etherne
t\GERBER_ETH\LIFT_ETHERNET_ECSTENTION.GTOPMASK:
File Finished:
Errors: 0
Warnings: 0

D:\misha\P-CAD\shinagan_saqmeta_saministro\turniketebis_martva\etherne
t\GERBER_ETH\LIFT_ETHERNET_ECSTENTION.GBOTMASK:
File Finished:
Errors: 0
Warnings: 0

D:\misha\P-CAD\shinagan_saqmeta_saministro\turniketebis_martva\etherne
t\GERBER_ETH\LIFT_ETHERNET_ECSTENTION.GTOPSILK:
File Finished:
Errors: 0
Warnings: 0

D:\misha\P-CAD\shinagan_saqmeta_saministro\turniketebis_martva\etherne
t\GERBER_ETH\LIFT_ETHERNET_ECSTENTION.GBRD:
File Finished:
Errors: 0
Warnings: 0

D:\misha\P-CAD\shinagan_saqmeta_saministro\turniketebis_martva\etherne
t\GERBER_ETH\LIFT_ETHERNET_ECSTENTION.GDRIL:
File Finished:
Errors: 0
Warnings: 0

Output Finished:
Errors: 0
Warnings: 0
Files: 7
