P-CAD Online DRC Error Log                                       PCB.pcb

======================================================================

OnlineDRC.ERR.txt:

NETLIST VIOLATIONS:


0 warning(s) detected.
0 error(s) detected.

CLEARANCE VIOLATIONS:


0 warning(s) detected.
0 error(s) detected.

WIDTH VIOLATIONS:


0 warning(s) detected.
0 error(s) detected.







































----------------------------------------------------------------------

05-May-11  05:50                                            Page    1

