P-CAD Net List Load Errors

======================================================================

Netlist filename: D:\misha\P-CAD\developer_boards\FLASH_2MB\netlist\Flash_2Mb.net
Warning: line 879
   * Component U1 of type AT45DB161D_2M is not in libraries.  Component of type AT26DF081A_SU loaded.
Warning: line 884
   * Component U2 of type AT45DB161D_2M is not in libraries.  Component of type AT26DF081A_SU loaded.
SHORTED NETS:


Net List Errors:   0
Net List Warnings: 2
















































----------------------------------------------------------------------

22-Apr-08  08:29                                            Page    1

