D:\MISHA\P-CAD\STM32_READER_WITH_AMPLIFIER\READER_WITHAUT_AMPLIFIER_2\GERBER\DRILL\PCB.NDRIL:
File Finished:
Errors: 0
Warnings: 0



Output Finished:
Errors: 0
Warnings: 0
Files: 1

----------------------------------------------------------------------

07-Mar-12  16:51                                            Page    1

