P-CAD N/C Drill Output Log

======================================================================

D:\SHARED\LAST_PCB_VERSION\PCB1\GERBER\NDRIL\PCB.DRIL:
File Finished:
Errors: 0
Warnings: 0



Output Finished:
Errors: 0
Warnings: 0
Files: 1

----------------------------------------------------------------------

10-Nov-08  02:02                                            Page    1

