D:\misha\P-CAD\SAQARTVELOS_BANKI_NEW\ACTIVE_ANTENNA\GERBER\PCB.GTOP:
File Finished:
Errors: 0
Warnings: 0

D:\misha\P-CAD\SAQARTVELOS_BANKI_NEW\ACTIVE_ANTENNA\GERBER\PCB.GBOTTOM
:
File Finished:
Errors: 0
Warnings: 0

D:\misha\P-CAD\SAQARTVELOS_BANKI_NEW\ACTIVE_ANTENNA\GERBER\PCB.GTOPMAS
K:
File Finished:
Errors: 0
Warnings: 0

D:\misha\P-CAD\SAQARTVELOS_BANKI_NEW\ACTIVE_ANTENNA\GERBER\PCB.GBOTMAS
K:
File Finished:
Errors: 0
Warnings: 0

D:\misha\P-CAD\SAQARTVELOS_BANKI_NEW\ACTIVE_ANTENNA\GERBER\PCB.GTOPSIL
K:
File Finished:
Errors: 0
Warnings: 0

D:\misha\P-CAD\SAQARTVELOS_BANKI_NEW\ACTIVE_ANTENNA\GERBER\PCB.GBRD:
File Finished:
Errors: 0
Warnings: 0

D:\misha\P-CAD\SAQARTVELOS_BANKI_NEW\ACTIVE_ANTENNA\GERBER\PCB.GDRIL:
File Finished:
Errors: 0
Warnings: 0

Output Finished:
Errors: 0
Warnings: 0
Files: 7
