D:\MISHA\P-CAD\SAQARTVELOS_BANKI_NEW\MAIN_BRD\GERBER\NDRIL\PCB.NDRIL:
File Finished:
Errors: 0
Warnings: 0



Output Finished:
Errors: 0
Warnings: 0
Files: 1

----------------------------------------------------------------------

05-Jun-12  17:27                                            Page    1

