

FATAL ERROR:  Unhandled Access Violation Reading 0x7ed31003 Exception at b187330h

06/05/2012 at 15:25:12.183  Drawing: D:\misha\P-CAD\SAQARTVELOS_BANKI_NEW\MAIN_BRD\panels_shablon\1.dwg
-------------
