D:\misha\P-CAD\shinagan_saqmeta_saministro\turniketebis_martva\GERBER\
PCB.GTOP:
File Finished:
Errors: 0
Warnings: 0

D:\misha\P-CAD\shinagan_saqmeta_saministro\turniketebis_martva\GERBER\
PCB.GBOTTOM:
File Finished:
Errors: 0
Warnings: 0

D:\misha\P-CAD\shinagan_saqmeta_saministro\turniketebis_martva\GERBER\
PCB.GTOPMASK:
File Finished:
Errors: 0
Warnings: 0

D:\misha\P-CAD\shinagan_saqmeta_saministro\turniketebis_martva\GERBER\
PCB.GBOTMASK:
File Finished:
Errors: 0
Warnings: 0

D:\misha\P-CAD\shinagan_saqmeta_saministro\turniketebis_martva\GERBER\
PCB.GTOPSILK:
File Finished:
Errors: 0
Warnings: 0

D:\misha\P-CAD\shinagan_saqmeta_saministro\turniketebis_martva\GERBER\
PCB.GBRD:
File Finished:
Errors: 0
Warnings: 0

D:\misha\P-CAD\shinagan_saqmeta_saministro\turniketebis_martva\GERBER\
PCB.GDRIL:
File Finished:
Errors: 0
Warnings: 0

Output Finished:
Errors: 0
Warnings: 0
Files: 7
