D:\MISHA\P-CAD\SAQARTVELOS_BANKI_NEW\RFID\GERBER\NDRIL\PCB.NDRIL:
File Finished:
Errors: 0
Warnings: 0



Output Finished:
Errors: 0
Warnings: 0
Files: 1

----------------------------------------------------------------------

24-May-12  16:10                                            Page    1

