D:\MISHA\P-CAD\LIFT\MAIN_BOAR_NEW\GERBER\NDRIL\PCB.NDRIL:
File Finished:
Errors: 0
Warnings: 0



Output Finished:
Errors: 0
Warnings: 0
Files: 1

----------------------------------------------------------------------

01-May-12  10:49                                            Page    1

