D:\MISHA\P-CAD\MARSHUTKEBI\MAIN_BOARD\FILE\GERBER\NDRIL\PCB.NDRIL:
File Finished:
Errors: 0
Warnings: 0



Output Finished:
Errors: 0
Warnings: 0
Files: 1

----------------------------------------------------------------------

15-Aug-11  05:20                                            Page    1

